…
We create a specification using
[`dcm_specify()`](https://dcmstan.r-dcm.org/reference/dcm_specify.md).
First, we must define our Q-matrix, which represents how the assessment
items relate to the latent attributes. For this example, we’ll create a
specification for the simulated “Diagnostic Teachers’ Multiplicative
Reasoning” (DTMR) data. In the DTMR data, there are 27 items that
collectively measure 4 attributes (for more information see
[`?dcmdata::dtmr`](https://dcmdata.r-dcm.org/reference/dtmr.html)).

``` r
library(dcmdata)

dtmr_qmatrix
#> # A tibble: 27 × 5
#>    item  referent_units partitioning_iterating appropriateness
#>    <chr>          <dbl>                  <dbl>           <dbl>
#>  1 1                  1                      0               0
#>  2 2                  0                      0               1
#>  3 3                  0                      1               0
#>  4 4                  1                      0               0
#>  5 5                  1                      0               0
#>  6 6                  0                      1               0
#>  7 7                  1                      0               0
#>  8 8a                 0                      0               1
#>  9 8b                 0                      0               1
#> 10 8c                 0                      0               1
#> # ℹ 17 more rows
#> # ℹ 1 more variable: multiplicative_comparison <dbl>
```
…
You will also need to create a list of data objects for *Stan*. This can
be accomplished using
[`stan_data()`](https://dcmstan.r-dcm.org/reference/stan_data.md). This
function takes our data set and the respondent identifier column name
(can be excluded if not present in `data`), and provides a list that can
be supplied to the `data` argument of `rstan::stan()`.

``` r
dtmr_data
#> # A tibble: 990 × 28
#>    id      `1`   `2`   `3`   `4`   `5`   `6`   `7`  `8a`  `8b`  `8c`  `8d`
#>    <fct> <int> <int> <int> <int> <int> <int> <int> <int> <int> <int> <int>
#>  1 0008…     1     1     0     1     0     0     1     1     0     1     1
#>  2 0009…     0     1     0     0     0     0     0     1     1     1     0
#>  3 0024…     0     1     0     0     0     0     1     1     1     1     0
#>  4 0031…     0     1     0     0     1     0     1     1     1     0     0
#>  5 0061…     0     1     1     0     0     0     0     0     0     1     0
#>  6 0087…     0     1     1     1     0     0     0     1     1     1     1
#>  7 0092…     0     1     1     1     1     0     0     1     1     1     0
#>  8 0097…     0     0     0     1     0     0     0     1     0     1     0
#>  9 0111…     0     1     1     0     0     0     0     1     0     1     1
#> 10 0121…     0     1     0     0     0     0     0     1     1     1     1
#> # ℹ 980 more rows
#> # ℹ 16 more variables: `9` <int>, `10a` <int>, `10b` <int>, `10c` <int>,
#> #   `11` <int>, `12` <int>, `13` <int>, `14` <int>, `15a` <int>,
#> #   `15b` <int>, `15c` <int>, `16` <int>, `17` <int>, `18` <int>,
#> #   `21` <int>, `22` <int>
…
